5 Aprendendo a manipular dados – Análise de dados criminais usando linguagem R
…
Também é possível filtrar mais de uma condição. Para isso, podemos usar o operador %in%:

gasoline %>%
  filter(year %in% seq(1969, 1973)) # sequência de anos entre 1969 a 1973

# A tibble: 90 × 6
   country  year lgaspcar lincomep  lrpmg lcarpcap
   <chr>   <int>    <dbl>    <dbl>  <dbl>    <dbl>
 1 austria  1969     4.05    -6.15 -0.559    -8.79
 2 austria  1970     4.08    -6.08 -0.597    -8.73
 3 austria  1971     4.11    -6.04 -0.654    -8.64
 4 austria  1972     4.13    -5.98 -0.596    -8.54
 5 austria  1973     4.20    -5.90 -0.594    -8.49
 6 belgium  1969     3.85    -5.86 -0.355    -8.52
 7 belgium  1970     3.87    -5.80 -0.378    -8.45
 8 belgium  1971     3.87    -5.76 -0.399    -8.41
 9 belgium  1972     3.91    -5.71 -0.311    -8.36
10 belgium  1973     3.90    -5.64 -0.373    -8.31
# ℹ 80 more rows

Ou

gasoline %>%
  filter(year %in% 1969:1973) # sem a função seq()

# A tibble: 90 × 6
   country  year lgaspcar lincomep  lrpmg lcarpcap
   <chr>   <int>    <dbl>    <dbl>  <dbl>    <dbl>
 1 austria  1969     4.05    -6.15 -0.559    -8.79
 2 austria  1970     4.08    -6.08 -0.597    -8.73
 3 austria  1971     4.11    -6.04 -0.654    -8.64
 4 austria  1972     4.13    -5.98 -0.596    -8.54
 5 austria  1973     4.20    -5.90 -0.594    -8.49
 6 belgium  1969     3.85    -5.86 -0.355    -8.52
 7 belgium  1970     3.87    -5.80 -0.378    -8.45
 8 belgium  1971     3.87    -5.76 -0.399    -8.41
 9 belgium  1972     3.91    -5.71 -0.311    -8.36
10 belgium  1973     3.90    -5.64 -0.373    -8.31
# ℹ 80 more rows

Ainda, é possível utilizar a função auxiliadora3 between():

3 Como o nome sugere, funções auxiliadores ajudam as funções principais. É importante notar que é possível usar funções dentro de funções.

gasoline %>%
  filter(between(year, 1969, 1973))

# A tibble: 90 × 6
   country  year lgaspcar lincomep  lrpmg lcarpcap
   <chr>   <int>    <dbl>    <dbl>  <dbl>    <dbl>
 1 austria  1969     4.05    -6.15 -0.559    -8.79
 2 austria  1970     4.08    -6.08 -0.597    -8.73
 3 austria  1971     4.11    -6.04 -0.654    -8.64
 4 austria  1972     4.13    -5.98 -0.596    -8.54
 5 austria  1973     4.20    -5.90 -0.594    -8.49
 6 belgium  1969     3.85    -5.86 -0.355    -8.52
 7 belgium  1970     3.87    -5.80 -0.378    -8.45
 8 belgium  1971     3.87    -5.76 -0.399    -8.41
 9 belgium  1972     3.91    -5.71 -0.311    -8.36
10 belgium  1973     3.90    -5.64 -0.373    -8.31
# ℹ 80 more rows

Também é possível selecionar anos não consecutivos:

gasoline %>%
  filter(year %in% c(1969, 1973, 1977))

# A tibble: 54 × 6
   country  year lgaspcar lincomep  lrpmg lcarpcap
   <chr>   <int>    <dbl>    <dbl>  <dbl>    <dbl>
 1 austria  1969     4.05    -6.15 -0.559    -8.79
 2 austria  1973     4.20    -5.90 -0.594    -8.49
 3 austria  1977     3.93    -5.83 -0.422    -8.25
 4 belgium  1969     3.85    -5.86 -0.355    -8.52
 5 belgium  1973     3.90    -5.64 -0.373    -8.31
 6 belgium  1977     3.85    -5.56 -0.432    -8.14
 7 canada   1969     4.86    -5.56 -1.04     -8.10
 8 canada   1973     4.90    -5.41 -1.13     -7.94
 9 canada   1977     4.81    -5.34 -1.07     -7.77
10 denmark  1969     4.17    -5.72 -0.407    -8.47
# ℹ 44 more rows

8.1 Usando a função select()

Enquanto a função filter() é utilizada para manter ou descartar as linhas do nosso conjunto de dados, a função select() nos permite selecionar colunas inteiras.

Para manter colunas, podemos utilizar:

gasoline %>%
  select(country, year, lrpmg)

# A tibble: 342 × 3
   country  year  lrpmg
   <chr>   <int>  <dbl>
 1 austria  1960 -0.335
 2 austria  1961 -0.351
 3 austria  1962 -0.380
 4 austria  1963 -0.414
 5 austria  1964 -0.445
 6 austria  1965 -0.497
 7 austria  1966 -0.467
 8 austria  1967 -0.506
 9 austria  1968 -0.522
10 austria  1969 -0.559
# ℹ 332 more rows

Para descartálas, utilizamos:

gasoline %>%
  select(-country, -year, -lrpmg)

# A tibble: 342 × 3
   lgaspcar lincomep lcarpcap
      <dbl>    <dbl>    <dbl>
 1     4.17    -6.47    -9.77
 2     4.10    -6.43    -9.61
 3     4.07    -6.41    -9.46
 4     4.06    -6.37    -9.34
 5     4.04    -6.32    -9.24
 6     4.03    -6.29    -9.12
 7     4.05    -6.25    -9.02
 8     4.05    -6.23    -8.93
 9     4.05    -6.21    -8.85
10     4.05    -6.15    -8.79
# ℹ 332 more rows

Ainda, é possível renomeá-las diretamente com a função select():

gasoline %>%
  select(country, date = year, lrpmg)

# A tibble: 342 × 3
   country  date  lrpmg
   <chr>   <int>  <dbl>
 1 austria  1960 -0.335
 2 austria  1961 -0.351
 3 austria  1962 -0.380
 4 austria  1963 -0.414
 5 austria  1964 -0.445
 6 austria  1965 -0.497
 7 austria  1966 -0.467
 8 austria  1967 -0.506
 9 austria  1968 -0.522
10 austria  1969 -0.559
# ℹ 332 more rows

A função rename() faz exatamente a mesma coisa. Entretanto, ele não faz nenhum tipo de seleção, apenas renomea a coluna de interesse.

gasoline %>%
  rename(date = year)

# A tibble: 342 × 6
   country  date lgaspcar lincomep  lrpmg lcarpcap
   <chr>   <int>    <dbl>    <dbl>  <dbl>    <dbl>
 1 austria  1960     4.17    -6.47 -0.335    -9.77
 2 austria  1961     4.10    -6.43 -0.351    -9.61
 3 austria  1962     4.07    -6.41 -0.380    -9.46
 4 austria  1963     4.06    -6.37 -0.414    -9.34
 5 austria  1964     4.04    -6.32 -0.445    -9.24
 6 austria  1965     4.03    -6.29 -0.497    -9.12
 7 austria  1966     4.05    -6.25 -0.467    -9.02
 8 austria  1967     4.05    -6.23 -0.506    -8.93
 9 austria  1968     4.05    -6.21 -0.522    -8.85
10 austria  1969     4.05    -6.15 -0.559    -8.79
# ℹ 332 more rows

É possível utilizar a função select() para reordenar as colunas. Eu quero, por exemplo, que minhas três primeiras colunas do conjunto de dados sejam year, country e lrpmg, nesta ordem:

gasoline %>%
  select(year, country, lrpmg, everything())

# A tibble: 342 × 6
    year country  lrpmg lgaspcar lincomep lcarpcap
   <int> <chr>    <dbl>    <dbl>    <dbl>    <dbl>
 1  1960 austria -0.335     4.17    -6.47    -9.77
 2  1961 austria -0.351     4.10    -6.43    -9.61
 3  1962 austria -0.380     4.07    -6.41    -9.46
 4  1963 austria -0.414     4.06    -6.37    -9.34
 5  1964 austria -0.445     4.04    -6.32    -9.24
 6  1965 austria -0.497     4.03    -6.29    -9.12
 7  1966 austria -0.467     4.05    -6.25    -9.02
 8  1967 austria -0.506     4.05    -6.23    -8.93
 9  1968 austria -0.522     4.05    -6.21    -8.85
10  1969 austria -0.559     4.05    -6.15    -8.79
# ℹ 332 more rows

A função everything() é uma função auxiliadora, como notamos. Ainda, existem outras funções, como por exemplo starts_with e ends_with. Se eu quiser, por exemplo, selecionar apenas as colunas cujo nome começam com “l”?

gasoline %>%
  select(starts_with("l"))

# A tibble: 342 × 4
   lgaspcar lincomep  lrpmg lcarpcap
      <dbl>    <dbl>  <dbl>    <dbl>
 1     4.17    -6.47 -0.335    -9.77
 2     4.10    -6.43 -0.351    -9.61
 3     4.07    -6.41 -0.380    -9.46
 4     4.06    -6.37 -0.414    -9.34
 5     4.04    -6.32 -0.445    -9.24
 6     4.03    -6.29 -0.497    -9.12
 7     4.05    -6.25 -0.467    -9.02
 8     4.05    -6.23 -0.506    -8.93
 9     4.05    -6.21 -0.522    -8.85
10     4.05    -6.15 -0.559    -8.79
# ℹ 332 more rows

ends_with funciona de maneira similar, dá para pegar a ideia. Outra função auxiliadora interessante é a contains():

gasoline %>%
  select(country, year, contains("car"))

# A tibble: 342 × 4
   country  year lgaspcar lcarpcap
   <chr>   <int>    <dbl>    <dbl>
 1 austria  1960     4.17    -9.77
 2 austria  1961     4.10    -9.61
 3 austria  1962     4.07    -9.46
 4 austria  1963     4.06    -9.34
 5 austria  1964     4.04    -9.24
 6 austria  1965     4.03    -9.12
 7 austria  1966     4.05    -9.02
 8 austria  1967     4.05    -8.93
 9 austria  1968     4.05    -8.85
10 austria  1969     4.05    -8.79
# ℹ 332 more rows

É possível encontrar uma lista de funções auxiliadoras na documentação do pacote. A documentação é uma espécie de manual, onde os desenvolvedores dos pacotes apresentam as principais funções, argumentos e exemplos de uso. Basta pesquisar por nome do pacote + R no Google que você acha as informações oficiais com bastante facilidade. A documentação do pacote {dplyr} é facilmente encontrada. ]

Outro verbo/função similar ao select() é o pull(). Como o nome sugere, ele puxa as informações de uma coluna específica. Comparativamente:

gasoline %>%
  select(lrpmg)

# A tibble: 342 × 1
    lrpmg
    <dbl>
 1 -0.335
 2 -0.351
 3 -0.380
 4 -0.414
 5 -0.445
 6 -0.497
 7 -0.467
 8 -0.506
 9 -0.522
10 -0.559
# ℹ 332 more rows

gasoline %>%
  pull(lrpmg) %>%
  head() # usando o head() porque temos muitos elementos neste conjunto de daods

[1] -0.3345476 -0.3513276 -0.3795177 -0.4142514 -0.4453354 -0.4970607

8.2 Agrupando informações com group_by()

A função group_by() facilita a computação de estatísticas descritivas por grupos. Agrupando os dados por país:

gasoline %>%
  group_by(country)

# A tibble: 342 × 6
# Groups:   country [18]
   country  year lgaspcar lincomep  lrpmg lcarpcap
   <chr>   <int>    <dbl>    <dbl>  <dbl>    <dbl>
 1 austria  1960     4.17    -6.47 -0.335    -9.77
 2 austria  1961     4.10    -6.43 -0.351    -9.61
 3 austria  1962     4.07    -6.41 -0.380    -9.46
 4 austria  1963     4.06    -6.37 -0.414    -9.34
 5 austria  1964     4.04    -6.32 -0.445    -9.24
 6 austria  1965     4.03    -6.29 -0.497    -9.12
 7 austria  1966     4.05    -6.25 -0.467    -9.02
 8 austria  1967     4.05    -6.23 -0.506    -8.93
 9 austria  1968     4.05    -6.21 -0.522    -8.85
10 austria  1969     4.05    -6.15 -0.559    -8.79
# ℹ 332 more rows

Não parece que mudou muita coisa, mas, se observamos a segunda linha do output, veremos que:

## # Groups:   country [18]

Isso significa que toda análise levará estes grupos em conta. Como vimos anteriormente com o starwars, é possível agrupar por mais de uma variável:

gasoline %>%
  group_by(country, year)

# A tibble: 342 × 6
# Groups:   country, year [342]
   country  year lgaspcar lincomep  lrpmg lcarpcap
   <chr>   <int>    <dbl>    <dbl>  <dbl>    <dbl>
 1 austria  1960     4.17    -6.47 -0.335    -9.77
 2 austria  1961     4.10    -6.43 -0.351    -9.61
 3 austria  1962     4.07    -6.41 -0.380    -9.46
 4 austria  1963     4.06    -6.37 -0.414    -9.34
 5 austria  1964     4.04    -6.32 -0.445    -9.24
 6 austria  1965     4.03    -6.29 -0.497    -9.12
 7 austria  1966     4.05    -6.25 -0.467    -9.02
 8 austria  1967     4.05    -6.23 -0.506    -8.93
 9 austria  1968     4.05    -6.21 -0.522    -8.85
10 austria  1969     4.05    -6.15 -0.559    -8.79
# ℹ 332 more rows

E também é possível desagrupar, com a função ungroup(). Basicamente, o group_by “marca” a tabela para que os cálculos sejam feitos por grupo, e o ungroup() volta para que você trabalhe com a tabela como um todo.

gasoline %>%
  group_by(country, year) %>%
  ungroup()

# A tibble: 342 × 6
   country  year lgaspcar lincomep  lrpmg lcarpcap
   <chr>   <int>    <dbl>    <dbl>  <dbl>    <dbl>
 1 austria  1960     4.17    -6.47 -0.335    -9.77
 2 austria  1961     4.10    -6.43 -0.351    -9.61
 3 austria  1962     4.07    -6.41 -0.380    -9.46
 4 austria  1963     4.06    -6.37 -0.414    -9.34
 5 austria  1964     4.04    -6.32 -0.445    -9.24
 6 austria  1965     4.03    -6.29 -0.497    -9.12
 7 austria  1966     4.05    -6.25 -0.467    -9.02
 8 austria  1967     4.05    -6.23 -0.506    -8.93
 9 austria  1968     4.05    -6.21 -0.522    -8.85
10 austria  1969     4.05    -6.15 -0.559    -8.79
# ℹ 332 more rows
…
# A tibble: 1 × 5
  country mean_gaspcar sd_gaspcar max_gaspcar min_gaspcar
  <chr>          <dbl>      <dbl>       <dbl>       <dbl>
1 italy           3.73      0.220        4.05        3.38

8.4 Adicionando colunas com o mutate() e transmute()

A função mutate() adiciona ou transforma uma coluna num conjunto de dados. Por exemplo:

gasoline %>%
  group_by(country) %>%
  mutate(n())

# A tibble: 342 × 7
# Groups:   country [18]
   country  year lgaspcar lincomep  lrpmg lcarpcap `n()`
   <chr>   <int>    <dbl>    <dbl>  <dbl>    <dbl> <int>
 1 austria  1960     4.17    -6.47 -0.335    -9.77    19
 2 austria  1961     4.10    -6.43 -0.351    -9.61    19
 3 austria  1962     4.07    -6.41 -0.380    -9.46    19
 4 austria  1963     4.06    -6.37 -0.414    -9.34    19
 5 austria  1964     4.04    -6.32 -0.445    -9.24    19
 6 austria  1965     4.03    -6.29 -0.497    -9.12    19
 7 austria  1966     4.05    -6.25 -0.467    -9.02    19
 8 austria  1967     4.05    -6.23 -0.506    -8.93    19
 9 austria  1968     4.05    -6.21 -0.522    -8.85    19
10 austria  1969     4.05    -6.15 -0.559    -8.79    19
# ℹ 332 more rows

Também é possível renomear a variável dentro da função mutate():

gasoline %>%
  group_by(country) %>%
  mutate(count = n())

# A tibble: 342 × 7
# Groups:   country [18]
   country  year lgaspcar lincomep  lrpmg lcarpcap count
   <chr>   <int>    <dbl>    <dbl>  <dbl>    <dbl> <int>
 1 austria  1960     4.17    -6.47 -0.335    -9.77    19
 2 austria  1961     4.10    -6.43 -0.351    -9.61    19
 3 austria  1962     4.07    -6.41 -0.380    -9.46    19
 4 austria  1963     4.06    -6.37 -0.414    -9.34    19
 5 austria  1964     4.04    -6.32 -0.445    -9.24    19
 6 austria  1965     4.03    -6.29 -0.497    -9.12    19
 7 austria  1966     4.05    -6.25 -0.467    -9.02    19
 8 austria  1967     4.05    -6.23 -0.506    -8.93    19
 9 austria  1968     4.05    -6.21 -0.522    -8.85    19
10 austria  1969     4.05    -6.15 -0.559    -8.79    19
# ℹ 332 more rows

Ainda, é possível fazer qualquer outra operação:

gasoline |> 
  group_by(country) |> 
  mutate(consumo_renda = lgaspcar / lincomep)

# A tibble: 342 × 7
# Groups:   country [18]
   country  year lgaspcar lincomep  lrpmg lcarpcap consumo_renda
   <chr>   <int>    <dbl>    <dbl>  <dbl>    <dbl>         <dbl>
 1 austria  1960     4.17    -6.47 -0.335    -9.77        -0.645
 2 austria  1961     4.10    -6.43 -0.351    -9.61        -0.638
 3 austria  1962     4.07    -6.41 -0.380    -9.46        -0.636
 4 austria  1963     4.06    -6.37 -0.414    -9.34        -0.637
 5 austria  1964     4.04    -6.32 -0.445    -9.24        -0.639
 6 austria  1965     4.03    -6.29 -0.497    -9.12        -0.641
 7 austria  1966     4.05    -6.25 -0.467    -9.02        -0.647
 8 austria  1967     4.05    -6.23 -0.506    -8.93        -0.650
 9 austria  1968     4.05    -6.21 -0.522    -8.85        -0.652
10 austria  1969     4.05    -6.15 -0.559    -8.79        -0.658
# ℹ 332 more rows

A função transmute() opera da mesma forma que o mutate, mas retorna apenas a variável criada:

gasoline |> 
  group_by(country) |> 
  transmute(consumo_renda = lgaspcar / lincomep)

# A tibble: 342 × 2
# Groups:   country [18]
   country consumo_renda
   <chr>           <dbl>
 1 austria        -0.645
 2 austria        -0.638
 3 austria        -0.636
 4 austria        -0.637
 5 austria        -0.639
 6 austria        -0.641
 7 austria        -0.647
 8 austria        -0.650
 9 austria        -0.652
10 austria        -0.658
# ℹ 332 more rows
…
